Getting started with eegUtils and the N170 • eegUtils
…
In the ERP Core scripts, they take the floor of this, so
shift the triggers by 26 samples.

Events coded in the data can be inspected directly using the
events() function. Let’s take a look.

events(single_data)

## # A tibble: 642 × 4
##    event_type event_onset urevent event_time
##         <dbl>       <dbl>   <dbl>      <dbl>
##  1        202        3101       1       3.03
##  2        202        4854       2       4.74
##  3         56        9207       3       8.99
##  4        201        9728       4       9.50
##  5        137       10725       5      10.5 
##  6        201       11072       6      10.8 
##  7        144       12193       7      11.9 
##  8        201       12620       8      12.3 
##  9         71       13711       9      13.4 
## 10        201       14094      10      13.8 
## # ℹ 632 more rows
…
sample_shift <- floor(26 / (1000/single_data$srate)) # round down
orig_events <- events(single_data)
orig_events$event_onset <-
  with(orig_events,
       ifelse(event_type %in% c(1:80,
                                100:180),
              event_onset + sample_shift,
              event_onset))
orig_events$event_time <- (orig_events$event_onset - 1) * (1/1024)
events(single_data) <- orig_events
events(single_data)

## # A tibble: 642 × 4
##    event_type event_onset urevent event_time
##         <dbl>       <dbl>   <dbl>      <dbl>
##  1        202        3101       1       3.03
##  2        202        4854       2       4.74
##  3         56        9233       3       9.02
##  4        201        9728       4       9.50
##  5        137       10751       5      10.5 
##  6        201       11072       6      10.8 
##  7        144       12219       7      11.9 
##  8        201       12620       8      12.3 
##  9         71       13737       9      13.4 
## 10        201       14094      10      13.8 
## # ℹ 632 more rows
…
This creates 320 epochs. We can inspect metadata for the epochs using
the epochs() function, which will show us information like
the participant_id and the label for each epoch. This is an
important structure, as it allows us to easily compare different
conditions later on using functions like plot_timecourse(),
and helps us keep track of which data belongs to which participant when
we have group data.

epochs(epoched_data)

## # A tibble: 320 × 5
##    epoch participant_id recording             event_type epoch_labels   
##    <dbl> <chr>          <chr>                      <dbl> <chr>          
##  1     1 sub-003        sub-003_task-N170_eeg         56 Intact_Cars    
##  2     2 sub-003        sub-003_task-N170_eeg        137 Scrambled_Faces
##  3     3 sub-003        sub-003_task-N170_eeg        144 Scrambled_Cars 
##  4     4 sub-003        sub-003_task-N170_eeg         71 Intact_Cars    
##  5     5 sub-003        sub-003_task-N170_eeg        163 Scrambled_Cars 
##  6     6 sub-003        sub-003_task-N170_eeg          4 Intact_Faces   
##  7     7 sub-003        sub-003_task-N170_eeg        143 Scrambled_Cars 
##  8     8 sub-003        sub-003_task-N170_eeg        124 Scrambled_Faces
##  9     9 sub-003        sub-003_task-N170_eeg        178 Scrambled_Cars 
## 10    10 sub-003        sub-003_task-N170_eeg         23 Intact_Faces   
## # ℹ 310 more rows
…
Let’s use some tidyverse magic to split our
epoch_labels column into two variables that code for this
structure. This is straightforward, since the values of the column use
_ to separate the values of each factor.

epochs(epoched_data) <-
  separate(
    epochs(epoched_data),
    col = epoch_labels,
    into = c("Intact",
             "Type")
    )
epochs(epoched_data)

## # A tibble: 320 × 6
##    epoch participant_id recording             event_type Intact    Type 
##    <dbl> <chr>          <chr>                      <dbl> <chr>     <chr>
##  1     1 sub-003        sub-003_task-N170_eeg         56 Intact    Cars 
##  2     2 sub-003        sub-003_task-N170_eeg        137 Scrambled Faces
##  3     3 sub-003        sub-003_task-N170_eeg        144 Scrambled Cars 
##  4     4 sub-003        sub-003_task-N170_eeg         71 Intact    Cars 
##  5     5 sub-003        sub-003_task-N170_eeg        163 Scrambled Cars 
##  6     6 sub-003        sub-003_task-N170_eeg          4 Intact    Faces
##  7     7 sub-003        sub-003_task-N170_eeg        143 Scrambled Cars 
##  8     8 sub-003        sub-003_task-N170_eeg        124 Scrambled Faces
##  9     9 sub-003        sub-003_task-N170_eeg        178 Scrambled Cars 
## 10    10 sub-003        sub-003_task-N170_eeg         23 Intact    Faces
## # ℹ 310 more rows
…
