Linear Modelling • eegUtils
…
The fit_glm() linear model fitting function in eegUtils looks in the epochs field of the data structures as predictors. To use these for linear modelling here, we’ll add the categorical and continuous predictors to the epochs structure.

epochs(limo_test) <- dplyr::mutate(epochs(limo_test),
                            phase_coherence = unlist(limo_cont),
                            face = factor(limo_cat$cond_lab,
                                          levels = c(1, 2),
                                          labels = c("Face_A",
                                                     "Face_B")))
epochs(limo_test)
#> # A tibble: 1,055 x 5
#>    epoch participant_id  recording       phase_coherence face  
#>    <int> <chr>           <chr>                     <dbl> <fct> 
#>  1     1 limo_dataset_S1 limo_dataset_S1            0.6  Face_B
#>  2     2 limo_dataset_S1 limo_dataset_S1            0.55 Face_A
#>  3     3 limo_dataset_S1 limo_dataset_S1            0.3  Face_B
#>  4     4 limo_dataset_S1 limo_dataset_S1            0.1  Face_A
#>  5     5 limo_dataset_S1 limo_dataset_S1            0.15 Face_A
#>  6     6 limo_dataset_S1 limo_dataset_S1            0.1  Face_B
#>  7     7 limo_dataset_S1 limo_dataset_S1            0.85 Face_A
#>  8     8 limo_dataset_S1 limo_dataset_S1            0.8  Face_B
#>  9     9 limo_dataset_S1 limo_dataset_S1            0.25 Face_A
#> 10    10 limo_dataset_S1 limo_dataset_S1            0.65 Face_B
#> # ... with 1,045 more rows
…
