A collection of utilities for EEG analysis • eegUtils
…
Now we might want a topographical plot. But BioSemi data files do not include channel locations, so we need to add them ourselves.

example_epochs <- electrode_locations(example_epochs,
                                      montage = "biosemi64alpha")
#> Electrodes not found: EXG1 EXG2 EXG3 EXG4 EXG5 EXG6
channels(example_epochs)
#> # A tibble: 70 x 9
#>    electrode radius theta   phi cart_x cart_y cart_z     x     y
#>    <chr>      <dbl> <dbl> <dbl>  <dbl>  <dbl>  <dbl> <dbl> <dbl>
#>  1 A1             1   -92   -72  -26.2   80.8  -2.97 -28.4  87.5
#>  2 A2             1   -92   -54  -49.9   68.7  -2.97 -54.1  74.4
#>  3 A3             1   -74   -65  -34.5   74.0  23.4  -31.3  67.1
#>  4 A4             1   -50   -68  -24.4   60.4  54.6  -18.7  46.4
#>  5 A5             1   -60   -51  -46.3   57.2  42.5  -37.8  46.6
#>  6 A6             1   -75   -41  -62.0   53.9  22    -56.6  49.2
#>  7 A7             1   -92   -36  -68.7   49.9  -2.97 -74.4  54.1
#>  8 A8             1   -92   -18  -80.8   26.2  -2.97 -87.5  28.4
#>  9 A9             1   -72   -21  -75.5   29.0  26.3  -67.2  25.8
#> 10 A10            1   -50   -28  -57.5   30.6  54.6  -44.2  23.5
#> # ... with 60 more rows
…
