EEG Utils • eegUtils
…
After epoching, use the epochs() function to check the meta-information for this data and its epochs.

epochs(epoched_example)
#> # A tibble: 256 x 5
#>    epoch participant_id recording         event_type epoch_labels
#>    <dbl> <chr>          <chr>                  <dbl> <chr>       
#>  1     1 ""             Matt-task-spatcue        122 valid_right 
#>  2     2 ""             Matt-task-spatcue        120 valid_left  
#>  3     3 ""             Matt-task-spatcue        122 valid_right 
#>  4     4 ""             Matt-task-spatcue        122 valid_right 
#>  5     5 ""             Matt-task-spatcue        120 valid_left  
#>  6     6 ""             Matt-task-spatcue        122 valid_right 
#>  7     7 ""             Matt-task-spatcue        120 valid_left  
#>  8     8 ""             Matt-task-spatcue        120 valid_left  
#>  9     9 ""             Matt-task-spatcue        122 valid_right 
#> 10    10 ""             Matt-task-spatcue        122 valid_right 
#> # ... with 246 more rows
…
Standard channel locations can be added using the electrode_locations() command. This function supplies default locations for over 300 typical locations accroding to the 10-05 system. There are several specific montages provided that can be specified using the montage parameter.

You can inspect the added locations using channels().

topoplot() can then be used to plot a topographical representation of selected data. Note that it is not compulsory to use locations from electrode_locations(); if the data has x and y columns when it is a data frame, or added to chan_info element of the eeg_data/eeg_epochs object, then those will be used.

epoched_example <- electrode_locations(epoched_example)
#> Electrodes not found: EXG1 EXG2 EXG3 EXG4 EXG5 EXG6
channels(epoched_example)
#> # A tibble: 70 x 9
#>    electrode radius theta   phi cart_x cart_y cart_z     x     y
#>    <chr>      <dbl> <dbl> <dbl>  <dbl>  <dbl>  <dbl> <dbl> <dbl>
#>  1 Fp1            1   -94   -71  -29.4   83.9  -6.99 -30.6  88.9
#>  2 AF7            1   -97   -51  -54.8   68.6 -10.6  -61.0  75.4
#>  3 AF3            1   -76   -66  -33.7   76.8  21.2  -30.9  69.4
#>  4 F1             1   -46   -64  -27.5   56.9  60.3  -20.2  41.3
#>  5 F3             1   -60   -47  -50.2   53.1  42.2  -40.9  43.9
#>  6 F5             1   -78   -37  -64.5   48.0  16.9  -62.3  46.9
#>  7 F7             1   -98   -31  -70.3   42.5 -11.4  -84    50.5
#>  8 FT7            1   -98   -10  -80.8   14.1 -11.1  -96.5  17.0
#>  9 FC5            1   -73   -14  -77.2   18.6  24.5  -70.8  17.7
#> 10 FC3            1   -49   -21  -60.2   22.7  55.5  -45.8  17.6
#> # ... with 60 more rows
…
