Modify events structure — events • eegUtils
…
    Other event handlers: 
list_epochs(),
list_events(),
tag_events()

    Author

    Matt Craddock matt@mattcraddock.com

    Examples

events(demo_epochs)

#> # A tibble: 80 x 5
#>    event_onset event_time event_type epoch  time
#>          <dbl>      <dbl>      <dbl> <dbl> <dbl>
#>  1        4128       8.06        208     1     0
#>  2        7037      13.7         213     2     0
#>  3       10043      19.6         215     3     0
#>  4       12928      25.2         213     4     0
#>  5       15868      31.0         207     5     0
#>  6       18777      36.7         207     6     0
#>  7       21578      42.1         213     7     0
#>  8       24554      48.0         213     8     0
#>  9       27379      53.5         222     9     0
#> 10       30306      59.2         208    10     0
#> # ... with 70 more rows
events(demo_epochs) <- mutate(events(demo_epochs),
 sf = dplyr::case_when(
         event_type %% 2 == 0 ~ "HSF",
         event_type %% 2 == 1 ~ "LSF",
 ))
events(demo_epochs)

#> # A tibble: 80 x 6
#>    event_onset event_time event_type epoch  time sf   
#>          <dbl>      <dbl>      <dbl> <dbl> <dbl> <chr>
#>  1        4128       8.06        208     1     0 HSF  
#>  2        7037      13.7         213     2     0 LSF  
#>  3       10043      19.6         215     3     0 LSF  
#>  4       12928      25.2         213     4     0 LSF  
#>  5       15868      31.0         207     5     0 LSF  
#>  6       18777      36.7         207     6     0 LSF  
#>  7       21578      42.1         213     7     0 LSF  
#>  8       24554      48.0         213     8     0 LSF  
#>  9       27379      53.5         222     9     0 HSF  
#> 10       30306      59.2         208    10     0 HSF  
#> # ... with 70 more rows
…
