A guide to eegUtils data structures • eegUtils
…
The events table has two additional columns, epoch and
time.

epoch gives the epoch number to which a given event
belongs

time gives the time point at which the event occurs
relative to the epoch onset

event_time still gives the time point at which the
event occurs relative to the recording onset

events(demo_epochs)
#> # A tibble: 80 × 5
#>    event_onset event_time event_type epoch  time
#>          <dbl>      <dbl>      <dbl> <dbl> <dbl>
#>  1        4128       8.06        208     1     0
#>  2        7037      13.7         213     2     0
#>  3       10043      19.6         215     3     0
#>  4       12928      25.2         213     4     0
#>  5       15868      31.0         207     5     0
#>  6       18777      36.7         207     6     0
#>  7       21578      42.1         213     7     0
#>  8       24554      48.0         213     8     0
#>  9       27379      53.5         222     9     0
#> 10       30306      59.2         208    10     0
#> # ℹ 70 more rows
…
epochs

A data.frame containing information about the participant, and
labels applied to any epochs

epochs(demo_epochs)
#> # A tibble: 80 × 4
#>    epoch recording epoch_label participant_id
#>    <dbl> <lgl>     <lgl>       <chr>         
#>  1     1 NA        NA          001           
#>  2     2 NA        NA          001           
#>  3     3 NA        NA          001           
#>  4     4 NA        NA          001           
#>  5     5 NA        NA          001           
#>  6     6 NA        NA          001           
#>  7     7 NA        NA          001           
#>  8     8 NA        NA          001           
#>  9     9 NA        NA          001           
#> 10    10 NA        NA          001           
#> # ℹ 70 more rows
…
